%YAML 1.1
%TAG !u! tag:unity3d.com,2011:
--- !u!1001 &7444187702152920951
PrefabInstance:
  m_ObjectHideFlags: 0
  serializedVersion: 2
  m_Modification:
    m_TransformParent: {fileID: 0}
    m_Modifications:
    - target: {fileID: 1480406937241525081, guid: 9c44b53f30506ef4ea6dcac94c722a5a, type: 3}
      propertyPath: m_Offset.y
      value: -0.014610082
      objectReference: {fileID: 0}
    - target: {fileID: 1480406937241525081, guid: 9c44b53f30506ef4ea6dcac94c722a5a, type: 3}
      propertyPath: m_SpriteTilingProperty.oldSize.x
      value: 1.9
      objectReference: {fileID: 0}
    - target: {fileID: 1480406937241525081, guid: 9c44b53f30506ef4ea6dcac94c722a5a, type: 3}
      propertyPath: m_SpriteTilingProperty.oldSize.y
      value: 1.9
      objectReference: {fileID: 0}
    - target: {fileID: 1480406937241525081, guid: 9c44b53f30506ef4ea6dcac94c722a5a, type: 3}
      propertyPath: m_Size.y
      value: 1.9019802
      objectReference: {fileID: 0}
    - target: {fileID: 1480406937241525081, guid: 9c44b53f30506ef4ea6dcac94c722a5a, type: 3}
      propertyPath: m_Offset.x
      value: 0.008043766
      objectReference: {fileID: 0}
    - target: {fileID: 1480406937241525081, guid: 9c44b53f30506ef4ea6dcac94c722a5a, type: 3}
      propertyPath: m_Size.x
      value: 1.8969259
      objectReference: {fileID: 0}
    - target: {fileID: 1480406937241525082, guid: 9c44b53f30506ef4ea6dcac94c722a5a, type: 3}
      propertyPath: m_Sprite
      value: 
      objectReference: {fileID: 21300000, guid: 2e633fc3ca9284c40b096b6692f17c0b, type: 3}
    - target: {fileID: 1480406937241525083, guid: 9c44b53f30506ef4ea6dcac94c722a5a, type: 3}
      propertyPath: m_LocalPosition.x
      value: -20.37
      objectReference: {fileID: 0}
    - target: {fileID: 1480406937241525083, guid: 9c44b53f30506ef4ea6dcac94c722a5a, type: 3}
      propertyPath: m_LocalPosition.y
      value: -8.96
      objectReference: {fileID: 0}
    - target: {fileID: 1480406937241525083, guid: 9c44b53f30506ef4ea6dcac94c722a5a, type: 3}
      propertyPath: m_LocalPosition.z
      value: 0
      objectReference: {fileID: 0}
    - target: {fileID: 1480406937241525083, guid: 9c44b53f30506ef4ea6dcac94c722a5a, type: 3}
      propertyPath: m_LocalRotation.x
      value: 0
      objectReference: {fileID: 0}
    - target: {fileID: 1480406937241525083, guid: 9c44b53f30506ef4ea6dcac94c722a5a, type: 3}
      propertyPath: m_LocalRotation.y
      value: 0
      objectReference: {fileID: 0}
    - target: {fileID: 1480406937241525083, guid: 9c44b53f30506ef4ea6dcac94c722a5a, type: 3}
      propertyPath: m_LocalRotation.z
      value: 0
      objectReference: {fileID: 0}
    - target: {fileID: 1480406937241525083, guid: 9c44b53f30506ef4ea6dcac94c722a5a, type: 3}
      propertyPath: m_LocalRotation.w
      value: 1
      objectReference: {fileID: 0}
    - target: {fileID: 1480406937241525083, guid: 9c44b53f30506ef4ea6dcac94c722a5a, type: 3}
      propertyPath: m_RootOrder
      value: 0
      objectReference: {fileID: 0}
    - target: {fileID: 1480406937241525083, guid: 9c44b53f30506ef4ea6dcac94c722a5a, type: 3}
      propertyPath: m_LocalEulerAnglesHint.x
      value: 0
      objectReference: {fileID: 0}
    - target: {fileID: 1480406937241525083, guid: 9c44b53f30506ef4ea6dcac94c722a5a, type: 3}
      propertyPath: m_LocalEulerAnglesHint.y
      value: 0
      objectReference: {fileID: 0}
    - target: {fileID: 1480406937241525083, guid: 9c44b53f30506ef4ea6dcac94c722a5a, type: 3}
      propertyPath: m_LocalEulerAnglesHint.z
      value: 0
      objectReference: {fileID: 0}
    - target: {fileID: 1480406937241525083, guid: 9c44b53f30506ef4ea6dcac94c722a5a, type: 3}
      propertyPath: m_LocalScale.x
      value: 1.8299156
      objectReference: {fileID: 0}
    - target: {fileID: 1480406937241525083, guid: 9c44b53f30506ef4ea6dcac94c722a5a, type: 3}
      propertyPath: m_LocalScale.y
      value: 1.0074788
      objectReference: {fileID: 0}
    - target: {fileID: 1480406937241525084, guid: 9c44b53f30506ef4ea6dcac94c722a5a, type: 3}
      propertyPath: m_Name
      value: tile1 (5)
      objectReference: {fileID: 0}
    m_RemovedComponents: []
  m_SourcePrefab: {fileID: 100100000, guid: 9c44b53f30506ef4ea6dcac94c722a5a, type: 3}
